Obama – Nicolas Laub-Sabater
…
Obama

The data used in this analysis comes from the Obama Presidential Library, specifically from their Digital Research Room. It is publicly available at:

🔗 https://www.obamalibrary.gov/digital-research-room/archived-white-house-websites-and-social-media

The dataset is titled tweets.csv, which contains tweets posted from the official @POTUS Twitter account during President Barack Obama’s administration. The dataset includes columns such as the text of each tweet, timestamp, and other metadata.

This analysis focuses primarily on the text column, which contains the actual content of the tweets. The goal is to examine how often President Obama mentioned key policy topics, such as healthcare, climate change, and the economy, over the course of his presidency.

# A tibble: 27,346 × 10
   tweet_id in_reply_to_status_id in_reply_to_user_id timestamp     source text 
      <dbl>                 <dbl>               <dbl> <chr>         <chr>  <chr>
 1  7.99e17                    NA                  NA 2016-11-16 1… "<a h… "\"N…
 2  7.99e17                    NA                  NA 2016-11-16 1… "<a h… "\"W…
 3  7.99e17                    NA                  NA 2016-11-16 1… "<a h… "\"T…
 4  7.99e17                    NA                  NA 2016-11-16 1… "<a h… "RT …
 5  7.99e17                    NA                  NA 2016-11-16 1… "<a h… "\"D…
 6  7.99e17                    NA                  NA 2016-11-16 1… "<a h… "\"W…
 7  7.99e17                    NA                  NA 2016-11-16 1… "<a h… "“In…
 8  7.99e17                    NA                  NA 2016-11-16 1… "<a h… "\"T…
 9  7.99e17                    NA                  NA 2016-11-16 1… "<a h… "“I …
10  7.99e17                    NA                  NA 2016-11-16 1… "<a h… "\"P…
# ℹ 27,336 more rows
# ℹ 4 more variables: retweeted_status_id <dbl>,
#   retweeted_status_user_id <dbl>, retweeted_status_timestamp <chr>,
#   expanded_urls <chr>
…
